…
## Selecting columns

### Base R

``` r
# by position
data[, 1:2]
```

    # A tibble: 344 × 2
       species island   
       <fct>   <fct>    
     1 Adelie  Torgersen
     2 Adelie  Torgersen
     3 Adelie  Torgersen
     4 Adelie  Torgersen
     5 Adelie  Torgersen
     6 Adelie  Torgersen
     7 Adelie  Torgersen
     8 Adelie  Torgersen
     9 Adelie  Torgersen
    10 Adelie  Torgersen
    # ℹ 334 more rows

``` r
# by name (note the variable names are in quotes)
data[, c("species", "island", "sex")]
```

    # A tibble: 344 × 3
       species island    sex   
       <fct>   <fct>     <fct> 
     1 Adelie  Torgersen male  
     2 Adelie  Torgersen female
     3 Adelie  Torgersen female
     4 Adelie  Torgersen <NA>  
     5 Adelie  Torgersen female
     6 Adelie  Torgersen male  
     7 Adelie  Torgersen female
     8 Adelie  Torgersen male  
     9 Adelie  Torgersen <NA>  
    10 Adelie  Torgersen <NA>  
    # ℹ 334 more rows

### tidyverse

``` r
# by position 
data %>%
  select(1:2)
```

    # A tibble: 344 × 2
       species island   
       <fct>   <fct>    
     1 Adelie  Torgersen
     2 Adelie  Torgersen
     3 Adelie  Torgersen
     4 Adelie  Torgersen
     5 Adelie  Torgersen
     6 Adelie  Torgersen
     7 Adelie  Torgersen
     8 Adelie  Torgersen
     9 Adelie  Torgersen
    10 Adelie  Torgersen
    # ℹ 334 more rows

``` r
# by name
data %>%
  select(species, island, sex)
```

    # A tibble: 344 × 3
       species island    sex   
       <fct>   <fct>     <fct> 
     1 Adelie  Torgersen male  
     2 Adelie  Torgersen female
     3 Adelie  Torgersen female
     4 Adelie  Torgersen <NA>  
     5 Adelie  Torgersen female
     6 Adelie  Torgersen male  
     7 Adelie  Torgersen female
     8 Adelie  Torgersen male  
     9 Adelie  Torgersen <NA>  
    10 Adelie  Torgersen <NA>  
    # ℹ 334 more rows
…
## Filtering data

### Base R

``` r
# note that filters go in the "rows" position because you're filtering based on row values. 
data[data$sex == "male" & !is.na(data$sex),]
```

    # A tibble: 168 × 8
       species island    bill_length_mm bill_depth_mm flipper_length_mm body_mass_g
       <fct>   <fct>              <dbl>         <dbl>             <int>       <int>
     1 Adelie  Torgersen           39.1          18.7               181        3750
     2 Adelie  Torgersen           39.3          20.6               190        3650
     3 Adelie  Torgersen           39.2          19.6               195        4675
     4 Adelie  Torgersen           38.6          21.2               191        3800
     5 Adelie  Torgersen           34.6          21.1               198        4400
     6 Adelie  Torgersen           42.5          20.7               197        4500
     7 Adelie  Torgersen           46            21.5               194        4200
     8 Adelie  Biscoe              37.7          18.7               180        3600
     9 Adelie  Biscoe              38.2          18.1               185        3950
    10 Adelie  Biscoe              38.8          17.2               180        3800
    # ℹ 158 more rows
    # ℹ 2 more variables: sex <fct>, year <int>

### tidyverse

``` r
data %>%
  filter(sex == "male" & !is.na(sex))
```

    # A tibble: 168 × 8
       species island    bill_length_mm bill_depth_mm flipper_length_mm body_mass_g
       <fct>   <fct>              <dbl>         <dbl>             <int>       <int>
     1 Adelie  Torgersen           39.1          18.7               181        3750
     2 Adelie  Torgersen           39.3          20.6               190        3650
     3 Adelie  Torgersen           39.2          19.6               195        4675
     4 Adelie  Torgersen           38.6          21.2               191        3800
     5 Adelie  Torgersen           34.6          21.1               198        4400
     6 Adelie  Torgersen           42.5          20.7               197        4500
     7 Adelie  Torgersen           46            21.5               194        4200
     8 Adelie  Biscoe              37.7          18.7               180        3600
     9 Adelie  Biscoe              38.2          18.1               185        3950
    10 Adelie  Biscoe              38.8          17.2               180        3800
    # ℹ 158 more rows
    # ℹ 2 more variables: sex <fct>, year <int>
…
