…
If you use the `row_number()` function within a `mutate()` step, it will
number records. Make sure you’ve sorted your data with `arrange()` so
that your numbers are assigned as expected.

``` r
data %>%
  group_by(Species) %>%
  arrange(desc(`Culmen Length (mm)`)) %>%
  mutate(record_num = row_number()) %>%
  ungroup() %>%
  select(Species, `Culmen Length (mm)`, record_num) %>%
  arrange(record_num, Species)
```

    # A tibble: 344 × 3
       Species                                   `Culmen Length (mm)` record_num
       <chr>                                                    <dbl>      <int>
     1 Adelie Penguin (Pygoscelis adeliae)                       46            1
     2 Chinstrap penguin (Pygoscelis antarctica)                 58            1
     3 Gentoo penguin (Pygoscelis papua)                         59.6          1
     4 Adelie Penguin (Pygoscelis adeliae)                       45.8          2
     5 Chinstrap penguin (Pygoscelis antarctica)                 55.8          2
     6 Gentoo penguin (Pygoscelis papua)                         55.9          2
     7 Adelie Penguin (Pygoscelis adeliae)                       45.6          3
     8 Chinstrap penguin (Pygoscelis antarctica)                 54.2          3
     9 Gentoo penguin (Pygoscelis papua)                         55.1          3
    10 Adelie Penguin (Pygoscelis adeliae)                       44.1          4
    # ℹ 334 more rows
…
