…
Can we identify unique penguins by only looking at `species`, `island`,
`year`, `sex` and `body_mass_g`?

``` r
data %>%
  group_by(species, island, year, sex, body_mass_g) %>%
  filter(n() > 1) %>%
  arrange(species, island, year, sex, body_mass_g)
```

    # A tibble: 110 × 8
    # Groups:   species, island, year, sex, body_mass_g [50]
       species island bill_length_mm bill_depth_mm flipper_length_mm body_mass_g
       <fct>   <fct>           <dbl>         <dbl>             <int>       <int>
     1 Adelie  Biscoe           35.9          19.2               189        3800
     2 Adelie  Biscoe           35.3          18.9               187        3800
     3 Adelie  Biscoe           38.2          18.1               185        3950
     4 Adelie  Biscoe           40.5          18.9               180        3950
     5 Adelie  Biscoe           36.5          16.6               181        2850
     6 Adelie  Biscoe           36.4          17.1               184        2850
     7 Adelie  Biscoe           42            19.5               200        4050
     8 Adelie  Biscoe           41.1          18.2               192        4050
     9 Adelie  Dream            39.5          17.8               188        3300
    10 Adelie  Dream            37.6          19.3               181        3300
    # ℹ 100 more rows
    # ℹ 2 more variables: sex <fct>, year <int>
…
