…
``` r
head(data$species, 5)
```

    [1] Adelie Adelie Adelie Adelie Adelie
    Levels: Adelie Chinstrap Gentoo

Or we can use tidy evaluation with the `tidyverse` functions:

``` r
data %>%
  select(species)
```

    # A tibble: 344 × 1
       species
       <fct>  
     1 Adelie 
     2 Adelie 
     3 Adelie 
     4 Adelie 
     5 Adelie 
     6 Adelie 
     7 Adelie 
     8 Adelie 
     9 Adelie 
    10 Adelie 
    # ℹ 334 more rows
…
